{
  "head": {
    "vars": [ "name" , "number" , "upStreamBandwidthValue" , "downStreamBandwidthValue" ]
  } ,
  "results": {
    "bindings": [
      {
        "name": { "type": "literal" , "value": "Business ISP A" } ,
        "number": { "type": "literal" , "value": "AS42" } ,
        "upStreamBandwidthValue": { "type": "literal" , "datatype": "http://www.w3.org/2001/XMLSchema#integer" , "value": "1" } ,
        "downStreamBandwidthValue": { "type": "literal" , "datatype": "http://www.w3.org/2001/XMLSchema#integer" , "value": "10" }
      }
    ]
  }
}
